…
<br />

### Best Pizza Places in New York






#### Our data came with ratings for various pizza places. We wanted to find the best pizza places in New York based off this. However, we didn't just want to calculate the average rating because we think an extreme rating can be more telling. As a result, we calculated the proportion of all ratings among the overall reviews and sorted by the highest proportion of reviews rating the pizzerias as "excellent". Of those ten, only Little Italy Pizza had reviewers who said they would never go back and four had no "poor" ratings either. Patsy's pizza (which I used to order as a kid!) was the winner with 2/3rds of reviewers calling its pizza "excellent". 

```
## # A tibble: 50 x 3
##    place     Answers      Proportion
##    <chr>     <chr>             <dbl>
##  1 Patsy's   eExcellent        0.667
##  2 Patsy's   dGood             0.167
##  3 Patsy's   cAverage          0.167
##  4 Patsy's   bPoor             0    
##  5 Patsy's   aNever_Again      0    
##  6 Naples 45 eExcellent        0.5  
##  7 Naples 45 dGood             0.25 
##  8 Naples 45 cAverage          0.125
##  9 Naples 45 bPoor             0.125
## 10 Naples 45 aNever_Again      0    
## #  with 40 more rows
```
…
